004-005 @READ_PROGRAM_MEMORY8.P1
004-005 @WRITE_PROGRAM_MEMORY8.P2
015     CCP_1
015     CCP_1_LOW
016     CCP_1_HIGH
01B     CCP_2
01B     CCP_2_LOW
01C     CCP_2_HIGH
021-024 main.mied
025-038 main.offset
039     main.i
03A     main.select
03B     main.recvData
03C-03F @PRINTF_L32U_9600_62_63.P1
03C     main.@SCRATCH1
03D     main.@SCRATCH2
03E     Init.select
03F-042 Init.offset
040     @PRINTF_L32U_9600_62_63.@SCRATCH1
041     @PRINTF_L32U_9600_62_63.@SCRATCH2
042     @PRINTF_L32U_9600_62_63.@SCRATCH3
043     Init.i
043     @PRINTF_L32U_9600_62_63.@SCRATCH4
044     measure.select
044     @PSTRINGCN7_9600_62_63.P1
044     @PRINTF_D_9600_62_63.P2
044     @PRINTF_L32U_9600_62_63.@SCRATCH5
045     @PRINTF_D_9600_62_63.P1
045-048 measure.count
045     @PRINTF_L32U_9600_62_63.@SCRATCH6
045     @PSTRINGCN7_9600_62_63.@SCRATCH1
046     @PRINTF_D_9600_62_63.@SCRATCH1
046     @PRINTF_L32U_9600_62_63.@SCRATCH7
046     @PSTRINGCN7_9600_62_63.@SCRATCH2
047     @PRINTF_D_9600_62_63.@SCRATCH2
047     @PRINTF_L32U_9600_62_63.@SCRATCH8
047     @PSTRINGCN7_9600_62_63.@SCRATCH3
048-04B @DIV3232.P1
048     @PRINTF_D_9600_62_63.@SCRATCH3
048     @PSTRINGCN7_9600_62_63.@SCRATCH4
049     measure.i
049     @PRINTF_D_9600_62_63.@SCRATCH4
04A     @DIV88.P1
04A     measure.A_1
04B     @DIV88.P1
04B     measure.A_2
04C-04F @DIV3232.P1
04C     measure.A_3
04C     @DIV88.@SCRATCH1
04D     measure.@SCRATCH1
050     @DIV3232.@SCRATCH1
051     @DIV3232.@SCRATCH2
052     @DIV3232.@SCRATCH3
053     @DIV3232.@SCRATCH4
054     @DIV3232.@SCRATCH5
077     @SCRATCH
078     @SCRATCH
078     _RETURN_
079     @SCRATCH
07A     @SCRATCH
107.6   C1OUT
108.6   C2OUT
10D-10E @WRITE_PROGRAM_MEMORY8.P1
10D-10E @READ_PROGRAM_MEMORY8.P2

ROM Allocation:
000004  @const625.call
000009  timed_getc
000016  @DIV88
00002B  @PRINTF_D_9600_62_63
000087  measure
0001CB  @DIV3232
00021C  Init
00022A  @PSTRINGCN7_9600_62_63
0002C3  @PRINTF_L32U_9600_62_63
00031C  main
00031C  @cinit1
00035E  @cinit2

Project Directory:
    C:\Users\racer\MPLABXProjects\SmartCushion_CCS.X\

Project Files:
    newmain.c                                               [27-10-16 13:42  CRC=23AC968F]
    ..\..\..\..\Program Files (x86)\PICC\Devices\16F883.h   [05-8-16 08:07  CRC=3C3F88C2]

Source signature=9C2BA813
Program memory checksum=0000
Program memory CRC=0000
Hex file CRC=AAD5

Units:
    newmain (main)

Compiler Settings:
    Processor:      PIC16F883
    Pointer Size:   16
    ADC Range:      0-255
    Opt Level:      0
    Short,Int,Long: UNSIGNED: 1,8,16
    Float,Double:   32,32
    Compile Mode:       CCS5
    Predefined symbols:
       #define __16F883 1

Compiler operating in Evaluation Mode
To obtain a fully enabled compiler visit www.ccsinfo.com/products

Output Files:
    XREF file:   build\default\production\newmain.xsym
    Errors:      build\default\production\newmain.err
    Ext Symbols: build\default\production\newmain.esym
    INHX8:       build\default\production\newmain.hex
    Symbols:     build\default\production\newmain.sym
    List:        build\default\production\newmain.lst
    Debug/COFF:  build\default\production\newmain.cof
    Project:     newmain.ccspjt
    Call Tree:   build\default\production\newmain.tre
    Statistics:  build\default\production\newmain.STA
